%YAML 1.1
%TAG !u! tag:unity3d.com,2011:
--- !u!74 &7400000
AnimationClip:
  m_ObjectHideFlags: 0
  m_PrefabParentObject: {fileID: 0}
  m_PrefabInternal: {fileID: 0}
  m_Name: BackgroundNoiseAnim
  serializedVersion: 6
  m_Legacy: 0
  m_Compressed: 0
  m_UseHighQualityCurve: 1
  m_RotationCurves: []
  m_CompressedRotationCurves: []
  m_EulerCurves: []
  m_PositionCurves: []
  m_ScaleCurves: []
  m_FloatCurves: []
  m_PPtrCurves:
  - curve:
    - time: 0
      value: {fileID: 21300000, guid: 4b1b1cab57a436f49b635a5ed16d57b5, type: 3}
    - time: 0.033333335
      value: {fileID: 21300000, guid: c009e0cf6357edc4983484940c3eb7a9, type: 3}
    - time: 0.06666667
      value: {fileID: 21300000, guid: ea68d2846bcfbc94bb2e7f41a9fb13e8, type: 3}
    - time: 0.1
      value: {fileID: 21300000, guid: 572b844b7773bd6499bd9fe353c79466, type: 3}
    - time: 0.13333334
      value: {fileID: 21300000, guid: e72867c7a83062044a5b877b18baf252, type: 3}
    - time: 0.16666667
      value: {fileID: 21300000, guid: 30e2838fcf78e884085e99d261b53de8, type: 3}
    - time: 0.2
      value: {fileID: 21300000, guid: 596761cc28131554b932e85837edbbb3, type: 3}
    - time: 0.23333333
      value: {fileID: 21300000, guid: e606460aaf6b46144b97328da088f130, type: 3}
    - time: 0.26666668
      value: {fileID: 21300000, guid: 8d5235193bd64534c9810242a5086159, type: 3}
    - time: 0.3
      value: {fileID: 21300000, guid: ceb0d9108291b194bb3a916b1420e921, type: 3}
    - time: 0.33333334
      value: {fileID: 21300000, guid: 518c63243d3e0b2458b410cf15b35238, type: 3}
    - time: 0.36666667
      value: {fileID: 21300000, guid: 361215f130daed7459354510e4405fa3, type: 3}
    - time: 0.4
      value: {fileID: 21300000, guid: 277647ce3884353449d1c2b12a8a3b87, type: 3}
    - time: 0.43333334
      value: {fileID: 21300000, guid: f700e89d140895148badef35d85fcdf0, type: 3}
    - time: 0.46666667
      value: {fileID: 21300000, guid: 16407d541e1bf3b4c81e32dfeca0c3bc, type: 3}
    - time: 0.5
      value: {fileID: 21300000, guid: d32a57c0790f5e543b28eedb7bef4fca, type: 3}
    - time: 0.53333336
      value: {fileID: 21300000, guid: dff4c62ba49f98840a9cdec3ad5633d7, type: 3}
    - time: 0.56666666
      value: {fileID: 21300000, guid: f7bab743f1c5dee4db01ba899390c9c1, type: 3}
    - time: 0.6
      value: {fileID: 21300000, guid: 25c6bebbdc6a5a74fbef7f6da3de6fae, type: 3}
    - time: 0.6333333
      value: {fileID: 21300000, guid: 3921ffbb4891d5145ad53f3573e82940, type: 3}
    - time: 0.6666667
      value: {fileID: 21300000, guid: f118c16370ac91d4bad2b07af7100e08, type: 3}
    - time: 0.7
      value: {fileID: 21300000, guid: d335d96dc0e62164681428a88692278c, type: 3}
    - time: 0.73333335
      value: {fileID: 21300000, guid: 3075c509737109440b26596902c65a3b, type: 3}
    - time: 0.76666665
      value: {fileID: 21300000, guid: c06f3eba75076fa48be6c1686f565f77, type: 3}
    - time: 0.8
      value: {fileID: 21300000, guid: 6e23828a7e678a74ba10d7bd8c895eb1, type: 3}
    - time: 0.8333333
      value: {fileID: 21300000, guid: 805b0064194e0c1498ed43550c8f5e38, type: 3}
    - time: 0.8666667
      value: {fileID: 21300000, guid: fbc4765f141435942a95c2e266784b3b, type: 3}
    - time: 0.9
      value: {fileID: 21300000, guid: c3375b03c80b86f478e12e6d35a92f4f, type: 3}
    - time: 0.93333334
      value: {fileID: 21300000, guid: 762811b1d30f3fe4fae240ceb140e27f, type: 3}
    - time: 0.96666664
      value: {fileID: 21300000, guid: 9d1a4f6271b13af4b8c0012ce438759d, type: 3}
    - time: 1
      value: {fileID: 21300000, guid: 8a078d54cc96826428308c828442ac69, type: 3}
    - time: 1.0333333
      value: {fileID: 21300000, guid: f74151d1b8578a443b3e982c9a066ef7, type: 3}
    - time: 1.0666667
      value: {fileID: 21300000, guid: 4754d3b549393194e8a35712c17c857a, type: 3}
    - time: 1.1
      value: {fileID: 21300000, guid: dfaa002a04210e34fae2722347f8181c, type: 3}
    - time: 1.1333333
      value: {fileID: 21300000, guid: 21c1e4b588203f149be94c7fd0dfc28d, type: 3}
    - time: 1.1666666
      value: {fileID: 21300000, guid: cb7a071ffeb825b46b784382e75a394a, type: 3}
    - time: 1.2
      value: {fileID: 21300000, guid: a21eb6eb8c0e50443aac0b5835fef1c8, type: 3}
    - time: 1.2333333
      value: {fileID: 21300000, guid: f06ed66a4862d394aa0d0ae8172f54ce, type: 3}
    - time: 1.2666667
      value: {fileID: 21300000, guid: 8fad86b4a40c8cb4799712f0063b8327, type: 3}
    - time: 1.3
      value: {fileID: 21300000, guid: 4c495f6101d2c894189763eb38e029be, type: 3}
    - time: 1.3333334
      value: {fileID: 21300000, guid: 2dc2a7384bc46aa49bf6952e07640433, type: 3}
    - time: 1.3666667
      value: {fileID: 21300000, guid: 1cfd4060748026d4594b2a10c32cc08d, type: 3}
    - time: 1.4
      value: {fileID: 21300000, guid: e7a0b741f1d6f4e41ab00a8c22ce3123, type: 3}
    - time: 1.4333333
      value: {fileID: 21300000, guid: de9c7f979510ec743b9cc2fe9321f462, type: 3}
    - time: 1.4666667
      value: {fileID: 21300000, guid: d2e8121888ec9614cb2385911e0ff1b6, type: 3}
    - time: 1.5
      value: {fileID: 21300000, guid: 0d052599598322043afd27503b4557e3, type: 3}
    - time: 1.5333333
      value: {fileID: 21300000, guid: c8cf75dada040774aaa64b6b6a8c340b, type: 3}
    - time: 1.5666667
      value: {fileID: 21300000, guid: 9af5c924260a9714c94d1f709461ec85, type: 3}
    - time: 1.6
      value: {fileID: 21300000, guid: c3e2031d577b5fd478275375ca956f5a, type: 3}
    - time: 1.6333333
      value: {fileID: 21300000, guid: 040e0f048584f9b4088be2e0e46290a3, type: 3}
    - time: 1.6666666
      value: {fileID: 21300000, guid: 9c2faa6d380776141a6e2dcd881704e5, type: 3}
    - time: 1.7
      value: {fileID: 21300000, guid: ae04fde5390d2a644a9aa0782a8b2f83, type: 3}
    - time: 1.7333333
      value: {fileID: 21300000, guid: c1850a0bf20889d4abe86c6a518d6bcb, type: 3}
    - time: 1.7666667
      value: {fileID: 21300000, guid: ac61f37ad331c5f4fb80e0433eae2ef5, type: 3}
    - time: 1.8
      value: {fileID: 21300000, guid: 5860a0183dbf40f4aabb0b09a0672f6a, type: 3}
    - time: 1.8333334
      value: {fileID: 21300000, guid: 5214f1fed5ea71940945246ef7601e57, type: 3}
    - time: 1.8666667
      value: {fileID: 21300000, guid: d597fe048911fff4a83eda7546677b37, type: 3}
    - time: 1.9
      value: {fileID: 21300000, guid: 52e2d87e5f4aea34f808a8efecc4f297, type: 3}
    - time: 1.9333333
      value: {fileID: 21300000, guid: 38a91bf57cfabd24ab40c170f4606d81, type: 3}
    - time: 1.9666667
      value: {fileID: 21300000, guid: 73d6310aaa6525e4b971004d2c4db696, type: 3}
    - time: 2
      value: {fileID: 21300000, guid: 494a9c555be306d40b4b1f1e4e10db38, type: 3}
    - time: 2.0333333
      value: {fileID: 21300000, guid: 302c6176628256c4cb290c323e3ea79d, type: 3}
    - time: 2.0666666
      value: {fileID: 21300000, guid: 887b47ce7fd0dee498392b37f27baf1e, type: 3}
    - time: 2.1
      value: {fileID: 21300000, guid: e16a1a04a4a6d3247a4ec35619a77770, type: 3}
    - time: 2.1333334
      value: {fileID: 21300000, guid: ee51cfd92af564d4492d1ccd1b864b15, type: 3}
    - time: 2.1666667
      value: {fileID: 21300000, guid: 6e9bba44b8a32ef48af1bce6c8eb2783, type: 3}
    - time: 2.2
      value: {fileID: 21300000, guid: 99459c7d989c0344682b8f3ccc9ee73a, type: 3}
    - time: 2.2333333
      value: {fileID: 21300000, guid: 35ef24a92cb4ee14693de6d71ad2dd38, type: 3}
    - time: 2.2666667
      value: {fileID: 21300000, guid: 0eeb88d437c234248afef07f08e87f25, type: 3}
    - time: 2.3
      value: {fileID: 21300000, guid: 6d03d6d70541fcb499bc2a3a27b9a447, type: 3}
    - time: 2.3333333
      value: {fileID: 21300000, guid: 4d51b022d54c96e4ba07dc3e27d93cc4, type: 3}
    - time: 2.3666666
      value: {fileID: 21300000, guid: f3103f9642f584b428efe639e31b095e, type: 3}
    - time: 2.4
      value: {fileID: 21300000, guid: ab98cb22687d4e04f9fca63621b4a29b, type: 3}
    - time: 2.4333334
      value: {fileID: 21300000, guid: 512c2a02ffad9264989550d9be146662, type: 3}
    - time: 2.4666667
      value: {fileID: 21300000, guid: 9a9f6b3e5048acf4d9f3b9206aeaf0b4, type: 3}
    - time: 2.5
      value: {fileID: 21300000, guid: 8d0f6b3ac9acb8f47a0278b33c9488a4, type: 3}
    - time: 2.5333333
      value: {fileID: 21300000, guid: 35dd1e5f8228f444b97b1a4e078de1eb, type: 3}
    - time: 2.5666666
      value: {fileID: 21300000, guid: 52b72a4a83e811b4a823bd13bf4e8e58, type: 3}
    - time: 2.6
      value: {fileID: 21300000, guid: df021f29d939eea49950bbc0864bb710, type: 3}
    - time: 2.6333334
      value: {fileID: 21300000, guid: ae3ab346f9a3a404aa9edf25589c4f86, type: 3}
    - time: 2.6666667
      value: {fileID: 21300000, guid: 85ee4e9d5d84dcf4f8fcfb9322b437e3, type: 3}
    - time: 2.7
      value: {fileID: 21300000, guid: 11cd114cf0ef2444eb48bf8dd6e6b9ea, type: 3}
    - time: 2.7333333
      value: {fileID: 21300000, guid: 4544836f41133424d978037be64c27aa, type: 3}
    - time: 2.7666667
      value: {fileID: 21300000, guid: ba02a47ffb7170c449f2343f1a7e891f, type: 3}
    - time: 2.8
      value: {fileID: 21300000, guid: 6952d2151b5137f45a5abff38232f63d, type: 3}
    - time: 2.8333333
      value: {fileID: 21300000, guid: 59ae4f38e44e8e64bac6d80628d7ce90, type: 3}
    - time: 2.8666666
      value: {fileID: 21300000, guid: ca8959804c5e5b542af83aecb441a939, type: 3}
    - time: 2.9
      value: {fileID: 21300000, guid: 320a312e56e6b254aabb95f5fe7eeff9, type: 3}
    - time: 2.9333334
      value: {fileID: 21300000, guid: 71ee1739f1d687a45ae46d8bc546076d, type: 3}
    - time: 2.9666667
      value: {fileID: 21300000, guid: f6f4de25dbb1499429cd39e725d8f8bc, type: 3}
    - time: 3
      value: {fileID: 21300000, guid: b25096a7911133849ad3ccbd05777b0d, type: 3}
    - time: 3.0333333
      value: {fileID: 21300000, guid: d55b4ea1d55f8394ebc061b0b6fa2f1e, type: 3}
    - time: 3.0666666
      value: {fileID: 21300000, guid: 3637f73aa0845754e8f45097777d596d, type: 3}
    - time: 3.1
      value: {fileID: 21300000, guid: 19ca96c7c9ad99246bae39a8b390135e, type: 3}
    - time: 3.1333334
      value: {fileID: 21300000, guid: aa545efe2a006304f8c4a40c1d5c7723, type: 3}
    - time: 3.1666667
      value: {fileID: 21300000, guid: 08ce06c8bac3a8c4e99687c0df742640, type: 3}
    - time: 3.2
      value: {fileID: 21300000, guid: e04c1e72e943d894781fb7635eada72b, type: 3}
    - time: 3.2333333
      value: {fileID: 21300000, guid: 9a7700aacf2ceca4e9a608c5db74ecf4, type: 3}
    - time: 3.2666667
      value: {fileID: 21300000, guid: 45da8a18b90f8d1499697cf774772a1a, type: 3}
    - time: 3.3
      value: {fileID: 21300000, guid: 7e776d5208bc226428767ed2fa98eed8, type: 3}
    - time: 3.3333333
      value: {fileID: 21300000, guid: b4401a04880bae24799aeb7e725ff766, type: 3}
    - time: 3.3666666
      value: {fileID: 21300000, guid: 974ddaaa88b9441489c6bd943656fd91, type: 3}
    - time: 3.4
      value: {fileID: 21300000, guid: 109a8e458eac1264b850e40f3b16d8c1, type: 3}
    - time: 3.4333334
      value: {fileID: 21300000, guid: 1952191aecf826047afde23160983bb9, type: 3}
    - time: 3.4666667
      value: {fileID: 21300000, guid: 8262e9d877f0f8c4fb3ea188f2290bf6, type: 3}
    - time: 3.5
      value: {fileID: 21300000, guid: 3b66244fcc090f044974754814644be3, type: 3}
    - time: 3.5333333
      value: {fileID: 21300000, guid: 38a4ae3b387b2a4408180ea55d8ddd56, type: 3}
    - time: 3.5666666
      value: {fileID: 21300000, guid: 211f3f13e8891fd4ab0fa03be5fbea0e, type: 3}
    - time: 3.6
      value: {fileID: 21300000, guid: 27f0bbc5079fd18448b0ea1c16be43a0, type: 3}
    - time: 3.6333334
      value: {fileID: 21300000, guid: b61ffa954e7955346bfd57dc485d5aa8, type: 3}
    - time: 3.6666667
      value: {fileID: 21300000, guid: d4c923054e4292648859e8ae1ef78fb6, type: 3}
    - time: 3.7
      value: {fileID: 21300000, guid: f1e68a8a7fb394642b16390aad1162a4, type: 3}
    - time: 3.7333333
      value: {fileID: 21300000, guid: c66aacb05379a8d4eb423cc7454e82e4, type: 3}
    - time: 3.7666667
      value: {fileID: 21300000, guid: 71b1b1076c7e8fb4baf103e74569e191, type: 3}
    - time: 3.8
      value: {fileID: 21300000, guid: f7e9c3fffc14f55498c5eaf07761d858, type: 3}
    - time: 3.8333333
      value: {fileID: 21300000, guid: 35130edc1e71f444ca731409e620f030, type: 3}
    - time: 3.8666666
      value: {fileID: 21300000, guid: b4dde6fab2d26e9499090d8ae2b97d46, type: 3}
    - time: 3.9
      value: {fileID: 21300000, guid: d053520ac06756a4b80630a07216173b, type: 3}
    - time: 3.9333334
      value: {fileID: 21300000, guid: 1515986d570891e4d82c399794d49f67, type: 3}
    - time: 3.9666667
      value: {fileID: 21300000, guid: 5e50eb71100cc444ab7264072f194c70, type: 3}
    - time: 4
      value: {fileID: 21300000, guid: 45761de118b8ba743a1709115fd362dd, type: 3}
    - time: 4.0333333
      value: {fileID: 21300000, guid: 2cbc7dafbbfddeb4386041ed375cfa07, type: 3}
    - time: 4.0666666
      value: {fileID: 21300000, guid: e609f0ac50015d44b8281278c99779ae, type: 3}
    - time: 4.1
      value: {fileID: 21300000, guid: 4f9ed0833163ed04a86af71b4ae2ec77, type: 3}
    - time: 4.133333
      value: {fileID: 21300000, guid: e1396b570c636794d93856e2dd8b3800, type: 3}
    - time: 4.1666665
      value: {fileID: 21300000, guid: a6b4bba7f190b25429f18039525afa3a, type: 3}
    - time: 4.2
      value: {fileID: 21300000, guid: cd183681e6b571e4da0ff22f6ffa34a7, type: 3}
    - time: 4.233333
      value: {fileID: 21300000, guid: 76214792a0177b942ab6686eed1c52ca, type: 3}
    - time: 4.266667
      value: {fileID: 21300000, guid: cc43d976a3ce92d4798a2aed52d87c19, type: 3}
    - time: 4.3
      value: {fileID: 21300000, guid: bfefac989603c77458b86c1254c60d45, type: 3}
    - time: 4.3333335
      value: {fileID: 21300000, guid: a0350cb36b3746f4cba141f5dc30b66b, type: 3}
    - time: 4.366667
      value: {fileID: 21300000, guid: 53d0eef2ef549ab408fe7daccc7a0760, type: 3}
    - time: 4.4
      value: {fileID: 21300000, guid: a5bd4f128a74b2c4a93f3f85ab7e0e98, type: 3}
    - time: 4.4333334
      value: {fileID: 21300000, guid: 9c02b3e41bb17b34a867dd94a644d06f, type: 3}
    - time: 4.4666667
      value: {fileID: 21300000, guid: 1419c7653a0745048a658c20a0904004, type: 3}
    - time: 4.5
      value: {fileID: 21300000, guid: 699dbec3c442ade43861e5d49204ceb7, type: 3}
    - time: 4.5333333
      value: {fileID: 21300000, guid: d152a379a60d4e14380dc0f4150b6139, type: 3}
    - time: 4.5666666
      value: {fileID: 21300000, guid: d993841bec3d0d9409c3bf15362996db, type: 3}
    - time: 4.6
      value: {fileID: 21300000, guid: 6ab5207c0570e8344a491bde097b1435, type: 3}
    - time: 4.633333
      value: {fileID: 21300000, guid: 38e57b86f70f5124fb117c0131c39ba7, type: 3}
    - time: 4.6666665
      value: {fileID: 21300000, guid: 9705fb16047b37944b431aae5defed37, type: 3}
    - time: 4.7
      value: {fileID: 21300000, guid: fd57c80e3aee74743b804bf43d033dc8, type: 3}
    - time: 4.733333
      value: {fileID: 21300000, guid: e6137208d65919749a63e38c7dbd453e, type: 3}
    - time: 4.766667
      value: {fileID: 21300000, guid: ce4f3205d6b9291408af064a874fe5bf, type: 3}
    - time: 4.8
      value: {fileID: 21300000, guid: a80f18fe9a4687b47a00c80c2207c924, type: 3}
    - time: 4.8333335
      value: {fileID: 21300000, guid: 0f6825b700efbf84e8e04f9cae31b0d1, type: 3}
    - time: 4.866667
      value: {fileID: 21300000, guid: 68b48a66ef4c4d8458a352708fdb985f, type: 3}
    - time: 4.9
      value: {fileID: 21300000, guid: e46d594f968df3e42987608079e53c75, type: 3}
    - time: 4.9333334
      value: {fileID: 21300000, guid: 79cc0f5f3e9a970488ab31c39bba6f1c, type: 3}
    - time: 4.9666667
      value: {fileID: 21300000, guid: e6d802102d76d824c8c1516862443518, type: 3}
    attribute: m_Sprite
    path: 
    classID: 212
    script: {fileID: 0}
  m_SampleRate: 30
  m_WrapMode: 0
  m_Bounds:
    m_Center: {x: 0, y: 0, z: 0}
    m_Extent: {x: 0, y: 0, z: 0}
  m_ClipBindingConstant:
    genericBindings:
    - serializedVersion: 2
      path: 0
      attribute: 0
      script: {fileID: 0}
      typeID: 212
      customType: 23
      isPPtrCurve: 1
    pptrCurveMapping:
    - {fileID: 21300000, guid: 4b1b1cab57a436f49b635a5ed16d57b5, type: 3}
    - {fileID: 21300000, guid: c009e0cf6357edc4983484940c3eb7a9, type: 3}
    - {fileID: 21300000, guid: ea68d2846bcfbc94bb2e7f41a9fb13e8, type: 3}
    - {fileID: 21300000, guid: 572b844b7773bd6499bd9fe353c79466, type: 3}
    - {fileID: 21300000, guid: e72867c7a83062044a5b877b18baf252, type: 3}
    - {fileID: 21300000, guid: 30e2838fcf78e884085e99d261b53de8, type: 3}
    - {fileID: 21300000, guid: 596761cc28131554b932e85837edbbb3, type: 3}
    - {fileID: 21300000, guid: e606460aaf6b46144b97328da088f130, type: 3}
    - {fileID: 21300000, guid: 8d5235193bd64534c9810242a5086159, type: 3}
    - {fileID: 21300000, guid: ceb0d9108291b194bb3a916b1420e921, type: 3}
    - {fileID: 21300000, guid: 518c63243d3e0b2458b410cf15b35238, type: 3}
    - {fileID: 21300000, guid: 361215f130daed7459354510e4405fa3, type: 3}
    - {fileID: 21300000, guid: 277647ce3884353449d1c2b12a8a3b87, type: 3}
    - {fileID: 21300000, guid: f700e89d140895148badef35d85fcdf0, type: 3}
    - {fileID: 21300000, guid: 16407d541e1bf3b4c81e32dfeca0c3bc, type: 3}
    - {fileID: 21300000, guid: d32a57c0790f5e543b28eedb7bef4fca, type: 3}
    - {fileID: 21300000, guid: dff4c62ba49f98840a9cdec3ad5633d7, type: 3}
    - {fileID: 21300000, guid: f7bab743f1c5dee4db01ba899390c9c1, type: 3}
    - {fileID: 21300000, guid: 25c6bebbdc6a5a74fbef7f6da3de6fae, type: 3}
    - {fileID: 21300000, guid: 3921ffbb4891d5145ad53f3573e82940, type: 3}
    - {fileID: 21300000, guid: f118c16370ac91d4bad2b07af7100e08, type: 3}
    - {fileID: 21300000, guid: d335d96dc0e62164681428a88692278c, type: 3}
    - {fileID: 21300000, guid: 3075c509737109440b26596902c65a3b, type: 3}
    - {fileID: 21300000, guid: c06f3eba75076fa48be6c1686f565f77, type: 3}
    - {fileID: 21300000, guid: 6e23828a7e678a74ba10d7bd8c895eb1, type: 3}
    - {fileID: 21300000, guid: 805b0064194e0c1498ed43550c8f5e38, type: 3}
    - {fileID: 21300000, guid: fbc4765f141435942a95c2e266784b3b, type: 3}
    - {fileID: 21300000, guid: c3375b03c80b86f478e12e6d35a92f4f, type: 3}
    - {fileID: 21300000, guid: 762811b1d30f3fe4fae240ceb140e27f, type: 3}
    - {fileID: 21300000, guid: 9d1a4f6271b13af4b8c0012ce438759d, type: 3}
    - {fileID: 21300000, guid: 8a078d54cc96826428308c828442ac69, type: 3}
    - {fileID: 21300000, guid: f74151d1b8578a443b3e982c9a066ef7, type: 3}
    - {fileID: 21300000, guid: 4754d3b549393194e8a35712c17c857a, type: 3}
    - {fileID: 21300000, guid: dfaa002a04210e34fae2722347f8181c, type: 3}
    - {fileID: 21300000, guid: 21c1e4b588203f149be94c7fd0dfc28d, type: 3}
    - {fileID: 21300000, guid: cb7a071ffeb825b46b784382e75a394a, type: 3}
    - {fileID: 21300000, guid: a21eb6eb8c0e50443aac0b5835fef1c8, type: 3}
    - {fileID: 21300000, guid: f06ed66a4862d394aa0d0ae8172f54ce, type: 3}
    - {fileID: 21300000, guid: 8fad86b4a40c8cb4799712f0063b8327, type: 3}
    - {fileID: 21300000, guid: 4c495f6101d2c894189763eb38e029be, type: 3}
    - {fileID: 21300000, guid: 2dc2a7384bc46aa49bf6952e07640433, type: 3}
    - {fileID: 21300000, guid: 1cfd4060748026d4594b2a10c32cc08d, type: 3}
    - {fileID: 21300000, guid: e7a0b741f1d6f4e41ab00a8c22ce3123, type: 3}
    - {fileID: 21300000, guid: de9c7f979510ec743b9cc2fe9321f462, type: 3}
    - {fileID: 21300000, guid: d2e8121888ec9614cb2385911e0ff1b6, type: 3}
    - {fileID: 21300000, guid: 0d052599598322043afd27503b4557e3, type: 3}
    - {fileID: 21300000, guid: c8cf75dada040774aaa64b6b6a8c340b, type: 3}
    - {fileID: 21300000, guid: 9af5c924260a9714c94d1f709461ec85, type: 3}
    - {fileID: 21300000, guid: c3e2031d577b5fd478275375ca956f5a, type: 3}
    - {fileID: 21300000, guid: 040e0f048584f9b4088be2e0e46290a3, type: 3}
    - {fileID: 21300000, guid: 9c2faa6d380776141a6e2dcd881704e5, type: 3}
    - {fileID: 21300000, guid: ae04fde5390d2a644a9aa0782a8b2f83, type: 3}
    - {fileID: 21300000, guid: c1850a0bf20889d4abe86c6a518d6bcb, type: 3}
    - {fileID: 21300000, guid: ac61f37ad331c5f4fb80e0433eae2ef5, type: 3}
    - {fileID: 21300000, guid: 5860a0183dbf40f4aabb0b09a0672f6a, type: 3}
    - {fileID: 21300000, guid: 5214f1fed5ea71940945246ef7601e57, type: 3}
    - {fileID: 21300000, guid: d597fe048911fff4a83eda7546677b37, type: 3}
    - {fileID: 21300000, guid: 52e2d87e5f4aea34f808a8efecc4f297, type: 3}
    - {fileID: 21300000, guid: 38a91bf57cfabd24ab40c170f4606d81, type: 3}
    - {fileID: 21300000, guid: 73d6310aaa6525e4b971004d2c4db696, type: 3}
    - {fileID: 21300000, guid: 494a9c555be306d40b4b1f1e4e10db38, type: 3}
    - {fileID: 21300000, guid: 302c6176628256c4cb290c323e3ea79d, type: 3}
    - {fileID: 21300000, guid: 887b47ce7fd0dee498392b37f27baf1e, type: 3}
    - {fileID: 21300000, guid: e16a1a04a4a6d3247a4ec35619a77770, type: 3}
    - {fileID: 21300000, guid: ee51cfd92af564d4492d1ccd1b864b15, type: 3}
    - {fileID: 21300000, guid: 6e9bba44b8a32ef48af1bce6c8eb2783, type: 3}
    - {fileID: 21300000, guid: 99459c7d989c0344682b8f3ccc9ee73a, type: 3}
    - {fileID: 21300000, guid: 35ef24a92cb4ee14693de6d71ad2dd38, type: 3}
    - {fileID: 21300000, guid: 0eeb88d437c234248afef07f08e87f25, type: 3}
    - {fileID: 21300000, guid: 6d03d6d70541fcb499bc2a3a27b9a447, type: 3}
    - {fileID: 21300000, guid: 4d51b022d54c96e4ba07dc3e27d93cc4, type: 3}
    - {fileID: 21300000, guid: f3103f9642f584b428efe639e31b095e, type: 3}
    - {fileID: 21300000, guid: ab98cb22687d4e04f9fca63621b4a29b, type: 3}
    - {fileID: 21300000, guid: 512c2a02ffad9264989550d9be146662, type: 3}
    - {fileID: 21300000, guid: 9a9f6b3e5048acf4d9f3b9206aeaf0b4, type: 3}
    - {fileID: 21300000, guid: 8d0f6b3ac9acb8f47a0278b33c9488a4, type: 3}
    - {fileID: 21300000, guid: 35dd1e5f8228f444b97b1a4e078de1eb, type: 3}
    - {fileID: 21300000, guid: 52b72a4a83e811b4a823bd13bf4e8e58, type: 3}
    - {fileID: 21300000, guid: df021f29d939eea49950bbc0864bb710, type: 3}
    - {fileID: 21300000, guid: ae3ab346f9a3a404aa9edf25589c4f86, type: 3}
    - {fileID: 21300000, guid: 85ee4e9d5d84dcf4f8fcfb9322b437e3, type: 3}
    - {fileID: 21300000, guid: 11cd114cf0ef2444eb48bf8dd6e6b9ea, type: 3}
    - {fileID: 21300000, guid: 4544836f41133424d978037be64c27aa, type: 3}
    - {fileID: 21300000, guid: ba02a47ffb7170c449f2343f1a7e891f, type: 3}
    - {fileID: 21300000, guid: 6952d2151b5137f45a5abff38232f63d, type: 3}
    - {fileID: 21300000, guid: 59ae4f38e44e8e64bac6d80628d7ce90, type: 3}
    - {fileID: 21300000, guid: ca8959804c5e5b542af83aecb441a939, type: 3}
    - {fileID: 21300000, guid: 320a312e56e6b254aabb95f5fe7eeff9, type: 3}
    - {fileID: 21300000, guid: 71ee1739f1d687a45ae46d8bc546076d, type: 3}
    - {fileID: 21300000, guid: f6f4de25dbb1499429cd39e725d8f8bc, type: 3}
    - {fileID: 21300000, guid: b25096a7911133849ad3ccbd05777b0d, type: 3}
    - {fileID: 21300000, guid: d55b4ea1d55f8394ebc061b0b6fa2f1e, type: 3}
    - {fileID: 21300000, guid: 3637f73aa0845754e8f45097777d596d, type: 3}
    - {fileID: 21300000, guid: 19ca96c7c9ad99246bae39a8b390135e, type: 3}
    - {fileID: 21300000, guid: aa545efe2a006304f8c4a40c1d5c7723, type: 3}
    - {fileID: 21300000, guid: 08ce06c8bac3a8c4e99687c0df742640, type: 3}
    - {fileID: 21300000, guid: e04c1e72e943d894781fb7635eada72b, type: 3}
    - {fileID: 21300000, guid: 9a7700aacf2ceca4e9a608c5db74ecf4, type: 3}
    - {fileID: 21300000, guid: 45da8a18b90f8d1499697cf774772a1a, type: 3}
    - {fileID: 21300000, guid: 7e776d5208bc226428767ed2fa98eed8, type: 3}
    - {fileID: 21300000, guid: b4401a04880bae24799aeb7e725ff766, type: 3}
    - {fileID: 21300000, guid: 974ddaaa88b9441489c6bd943656fd91, type: 3}
    - {fileID: 21300000, guid: 109a8e458eac1264b850e40f3b16d8c1, type: 3}
    - {fileID: 21300000, guid: 1952191aecf826047afde23160983bb9, type: 3}
    - {fileID: 21300000, guid: 8262e9d877f0f8c4fb3ea188f2290bf6, type: 3}
    - {fileID: 21300000, guid: 3b66244fcc090f044974754814644be3, type: 3}
    - {fileID: 21300000, guid: 38a4ae3b387b2a4408180ea55d8ddd56, type: 3}
    - {fileID: 21300000, guid: 211f3f13e8891fd4ab0fa03be5fbea0e, type: 3}
    - {fileID: 21300000, guid: 27f0bbc5079fd18448b0ea1c16be43a0, type: 3}
    - {fileID: 21300000, guid: b61ffa954e7955346bfd57dc485d5aa8, type: 3}
    - {fileID: 21300000, guid: d4c923054e4292648859e8ae1ef78fb6, type: 3}
    - {fileID: 21300000, guid: f1e68a8a7fb394642b16390aad1162a4, type: 3}
    - {fileID: 21300000, guid: c66aacb05379a8d4eb423cc7454e82e4, type: 3}
    - {fileID: 21300000, guid: 71b1b1076c7e8fb4baf103e74569e191, type: 3}
    - {fileID: 21300000, guid: f7e9c3fffc14f55498c5eaf07761d858, type: 3}
    - {fileID: 21300000, guid: 35130edc1e71f444ca731409e620f030, type: 3}
    - {fileID: 21300000, guid: b4dde6fab2d26e9499090d8ae2b97d46, type: 3}
    - {fileID: 21300000, guid: d053520ac06756a4b80630a07216173b, type: 3}
    - {fileID: 21300000, guid: 1515986d570891e4d82c399794d49f67, type: 3}
    - {fileID: 21300000, guid: 5e50eb71100cc444ab7264072f194c70, type: 3}
    - {fileID: 21300000, guid: 45761de118b8ba743a1709115fd362dd, type: 3}
    - {fileID: 21300000, guid: 2cbc7dafbbfddeb4386041ed375cfa07, type: 3}
    - {fileID: 21300000, guid: e609f0ac50015d44b8281278c99779ae, type: 3}
    - {fileID: 21300000, guid: 4f9ed0833163ed04a86af71b4ae2ec77, type: 3}
    - {fileID: 21300000, guid: e1396b570c636794d93856e2dd8b3800, type: 3}
    - {fileID: 21300000, guid: a6b4bba7f190b25429f18039525afa3a, type: 3}
    - {fileID: 21300000, guid: cd183681e6b571e4da0ff22f6ffa34a7, type: 3}
    - {fileID: 21300000, guid: 76214792a0177b942ab6686eed1c52ca, type: 3}
    - {fileID: 21300000, guid: cc43d976a3ce92d4798a2aed52d87c19, type: 3}
    - {fileID: 21300000, guid: bfefac989603c77458b86c1254c60d45, type: 3}
    - {fileID: 21300000, guid: a0350cb36b3746f4cba141f5dc30b66b, type: 3}
    - {fileID: 21300000, guid: 53d0eef2ef549ab408fe7daccc7a0760, type: 3}
    - {fileID: 21300000, guid: a5bd4f128a74b2c4a93f3f85ab7e0e98, type: 3}
    - {fileID: 21300000, guid: 9c02b3e41bb17b34a867dd94a644d06f, type: 3}
    - {fileID: 21300000, guid: 1419c7653a0745048a658c20a0904004, type: 3}
    - {fileID: 21300000, guid: 699dbec3c442ade43861e5d49204ceb7, type: 3}
    - {fileID: 21300000, guid: d152a379a60d4e14380dc0f4150b6139, type: 3}
    - {fileID: 21300000, guid: d993841bec3d0d9409c3bf15362996db, type: 3}
    - {fileID: 21300000, guid: 6ab5207c0570e8344a491bde097b1435, type: 3}
    - {fileID: 21300000, guid: 38e57b86f70f5124fb117c0131c39ba7, type: 3}
    - {fileID: 21300000, guid: 9705fb16047b37944b431aae5defed37, type: 3}
    - {fileID: 21300000, guid: fd57c80e3aee74743b804bf43d033dc8, type: 3}
    - {fileID: 21300000, guid: e6137208d65919749a63e38c7dbd453e, type: 3}
    - {fileID: 21300000, guid: ce4f3205d6b9291408af064a874fe5bf, type: 3}
    - {fileID: 21300000, guid: a80f18fe9a4687b47a00c80c2207c924, type: 3}
    - {fileID: 21300000, guid: 0f6825b700efbf84e8e04f9cae31b0d1, type: 3}
    - {fileID: 21300000, guid: 68b48a66ef4c4d8458a352708fdb985f, type: 3}
    - {fileID: 21300000, guid: e46d594f968df3e42987608079e53c75, type: 3}
    - {fileID: 21300000, guid: 79cc0f5f3e9a970488ab31c39bba6f1c, type: 3}
    - {fileID: 21300000, guid: e6d802102d76d824c8c1516862443518, type: 3}
  m_AnimationClipSettings:
    serializedVersion: 2
    m_AdditiveReferencePoseClip: {fileID: 0}
    m_AdditiveReferencePoseTime: 0
    m_StartTime: 0
    m_StopTime: 5
    m_OrientationOffsetY: 0
    m_Level: 0
    m_CycleOffset: 0
    m_HasAdditiveReferencePose: 0
    m_LoopTime: 1
    m_LoopBlend: 0
    m_LoopBlendOrientation: 0
    m_LoopBlendPositionY: 0
    m_LoopBlendPositionXZ: 0
    m_KeepOriginalOrientation: 0
    m_KeepOriginalPositionY: 1
    m_KeepOriginalPositionXZ: 0
    m_HeightFromFeet: 0
    m_Mirror: 0
  m_EditorCurves: []
  m_EulerEditorCurves: []
  m_HasGenericRootTransform: 0
  m_HasMotionFloatCurves: 0
  m_GenerateMotionCurves: 0
  m_Events: []
