%YAML 1.1
%TAG !u! tag:unity3d.com,2011:
--- !u!74 &7400000
AnimationClip:
  m_ObjectHideFlags: 0
  m_PrefabParentObject: {fileID: 0}
  m_PrefabInternal: {fileID: 0}
  m_Name: LevelJungle_slug_run
  serializedVersion: 6
  m_Legacy: 0
  m_Compressed: 0
  m_UseHighQualityCurve: 1
  m_RotationCurves: []
  m_CompressedRotationCurves: []
  m_EulerCurves: []
  m_PositionCurves: []
  m_ScaleCurves: []
  m_FloatCurves: []
  m_PPtrCurves:
  - curve:
    - time: 0
      value: {fileID: 21300000, guid: 0914abb6e9319ee44a159af8b34379d3, type: 3}
    - time: 0.06666667
      value: {fileID: 21300000, guid: 38b66f4892100014daa801365fcea7bf, type: 3}
    - time: 0.13333334
      value: {fileID: 21300000, guid: 056b1135fef44404897e02fcfdca32f6, type: 3}
    - time: 0.2
      value: {fileID: 21300000, guid: 666fbdf7edf71da468f3e23052afa2a6, type: 3}
    - time: 0.26666668
      value: {fileID: 21300000, guid: 52222c0e9366bc04ba09ae43f4deb1e0, type: 3}
    - time: 0.33333334
      value: {fileID: 21300000, guid: 26f80f9b116865a4895af3e9e659ed3e, type: 3}
    - time: 0.4
      value: {fileID: 21300000, guid: 943392b8ffb030f4c9afc5215f5e7da7, type: 3}
    - time: 0.46666667
      value: {fileID: 21300000, guid: cd0217de96a336c41b79a8a76c930800, type: 3}
    - time: 0.53333336
      value: {fileID: 21300000, guid: 124860a70f8c3994eada9e5e87c07056, type: 3}
    - time: 0.6
      value: {fileID: 21300000, guid: 3ecdb6d5762d0d9468368d3ab252208c, type: 3}
    - time: 0.6666667
      value: {fileID: 21300000, guid: 87f034c49dab635479eb680da0b2c659, type: 3}
    - time: 0.73333335
      value: {fileID: 21300000, guid: 58b96ec5c6cec264da70cbe15fd4ad3d, type: 3}
    - time: 0.8
      value: {fileID: 21300000, guid: 9b7b57d34f005c8408ceca88876a64e8, type: 3}
    - time: 0.8666667
      value: {fileID: 21300000, guid: c5c07ed2b63bf8342a01e22f0ea88253, type: 3}
    - time: 0.93333334
      value: {fileID: 21300000, guid: b8ef8b57b11f83749a14e8fa4e9b5f26, type: 3}
    - time: 1
      value: {fileID: 21300000, guid: 3281b84e89feb7842b0ea04c44c861d5, type: 3}
    attribute: m_Sprite
    path: mainImage
    classID: 212
    script: {fileID: 0}
  m_SampleRate: 60
  m_WrapMode: 0
  m_Bounds:
    m_Center: {x: 0, y: 0, z: 0}
    m_Extent: {x: 0, y: 0, z: 0}
  m_ClipBindingConstant:
    genericBindings:
    - serializedVersion: 2
      path: 3110758690
      attribute: 0
      script: {fileID: 0}
      typeID: 212
      customType: 23
      isPPtrCurve: 1
    pptrCurveMapping:
    - {fileID: 21300000, guid: 0914abb6e9319ee44a159af8b34379d3, type: 3}
    - {fileID: 21300000, guid: 38b66f4892100014daa801365fcea7bf, type: 3}
    - {fileID: 21300000, guid: 056b1135fef44404897e02fcfdca32f6, type: 3}
    - {fileID: 21300000, guid: 666fbdf7edf71da468f3e23052afa2a6, type: 3}
    - {fileID: 21300000, guid: 52222c0e9366bc04ba09ae43f4deb1e0, type: 3}
    - {fileID: 21300000, guid: 26f80f9b116865a4895af3e9e659ed3e, type: 3}
    - {fileID: 21300000, guid: 943392b8ffb030f4c9afc5215f5e7da7, type: 3}
    - {fileID: 21300000, guid: cd0217de96a336c41b79a8a76c930800, type: 3}
    - {fileID: 21300000, guid: 124860a70f8c3994eada9e5e87c07056, type: 3}
    - {fileID: 21300000, guid: 3ecdb6d5762d0d9468368d3ab252208c, type: 3}
    - {fileID: 21300000, guid: 87f034c49dab635479eb680da0b2c659, type: 3}
    - {fileID: 21300000, guid: 58b96ec5c6cec264da70cbe15fd4ad3d, type: 3}
    - {fileID: 21300000, guid: 9b7b57d34f005c8408ceca88876a64e8, type: 3}
    - {fileID: 21300000, guid: c5c07ed2b63bf8342a01e22f0ea88253, type: 3}
    - {fileID: 21300000, guid: b8ef8b57b11f83749a14e8fa4e9b5f26, type: 3}
    - {fileID: 21300000, guid: 3281b84e89feb7842b0ea04c44c861d5, type: 3}
  m_AnimationClipSettings:
    serializedVersion: 2
    m_AdditiveReferencePoseClip: {fileID: 0}
    m_AdditiveReferencePoseTime: 0
    m_StartTime: 0
    m_StopTime: 1.0166667
    m_OrientationOffsetY: 0
    m_Level: 0
    m_CycleOffset: 0
    m_HasAdditiveReferencePose: 0
    m_LoopTime: 1
    m_LoopBlend: 0
    m_LoopBlendOrientation: 0
    m_LoopBlendPositionY: 0
    m_LoopBlendPositionXZ: 0
    m_KeepOriginalOrientation: 0
    m_KeepOriginalPositionY: 1
    m_KeepOriginalPositionXZ: 0
    m_HeightFromFeet: 0
    m_Mirror: 0
  m_EditorCurves: []
  m_EulerEditorCurves: []
  m_HasGenericRootTransform: 0
  m_HasMotionFloatCurves: 0
  m_GenerateMotionCurves: 0
  m_Events:
  - time: 0.6666667
    functionName: EventRunStop
    data: 
    objectReferenceParameter: {fileID: 0}
    floatParameter: 0
    intParameter: 0
    messageOptions: 0
  - time: 1
    functionName: EventRunEnd
    data: 
    objectReferenceParameter: {fileID: 0}
    floatParameter: 0
    intParameter: 0
    messageOptions: 0
