%YAML 1.1
%TAG !u! tag:unity3d.com,2011:
--- !u!74 &7400000
AnimationClip:
  m_ObjectHideFlags: 0
  m_PrefabParentObject: {fileID: 0}
  m_PrefabInternal: {fileID: 0}
  m_Name: LevelJungle_slug_idle
  serializedVersion: 6
  m_Legacy: 0
  m_Compressed: 0
  m_UseHighQualityCurve: 1
  m_RotationCurves: []
  m_CompressedRotationCurves: []
  m_EulerCurves: []
  m_PositionCurves: []
  m_ScaleCurves: []
  m_FloatCurves: []
  m_PPtrCurves:
  - curve:
    - time: 0
      value: {fileID: 21300000, guid: 2bfd84f42e2e24f47a7ece4e6df9f506, type: 3}
    - time: 0.06666667
      value: {fileID: 21300000, guid: 5632f874006d55d47a276c62894c92e1, type: 3}
    - time: 0.13333334
      value: {fileID: 21300000, guid: 2a2520bce4715d54dbb265682ea1a3f4, type: 3}
    - time: 0.2
      value: {fileID: 21300000, guid: 0e77f700b11e809408033145d05cc122, type: 3}
    - time: 0.26666668
      value: {fileID: 21300000, guid: e2eafb8427cb2104f9cd1fb72d3b9b8d, type: 3}
    - time: 0.33333334
      value: {fileID: 21300000, guid: 7e655c60fa674b34c89054aa7909b697, type: 3}
    - time: 0.4
      value: {fileID: 21300000, guid: 6977695477c12ea41aafda4f811d38fc, type: 3}
    - time: 0.46666667
      value: {fileID: 21300000, guid: 8b85187adad33f84faa03451964c4091, type: 3}
    - time: 0.53333336
      value: {fileID: 21300000, guid: b90ad6f5c7afc334fad582acfa9122e4, type: 3}
    attribute: m_Sprite
    path: mainImage
    classID: 212
    script: {fileID: 0}
  m_SampleRate: 60
  m_WrapMode: 0
  m_Bounds:
    m_Center: {x: 0, y: 0, z: 0}
    m_Extent: {x: 0, y: 0, z: 0}
  m_ClipBindingConstant:
    genericBindings:
    - serializedVersion: 2
      path: 3110758690
      attribute: 0
      script: {fileID: 0}
      typeID: 212
      customType: 23
      isPPtrCurve: 1
    pptrCurveMapping:
    - {fileID: 21300000, guid: 2bfd84f42e2e24f47a7ece4e6df9f506, type: 3}
    - {fileID: 21300000, guid: 5632f874006d55d47a276c62894c92e1, type: 3}
    - {fileID: 21300000, guid: 2a2520bce4715d54dbb265682ea1a3f4, type: 3}
    - {fileID: 21300000, guid: 0e77f700b11e809408033145d05cc122, type: 3}
    - {fileID: 21300000, guid: e2eafb8427cb2104f9cd1fb72d3b9b8d, type: 3}
    - {fileID: 21300000, guid: 7e655c60fa674b34c89054aa7909b697, type: 3}
    - {fileID: 21300000, guid: 6977695477c12ea41aafda4f811d38fc, type: 3}
    - {fileID: 21300000, guid: 8b85187adad33f84faa03451964c4091, type: 3}
    - {fileID: 21300000, guid: b90ad6f5c7afc334fad582acfa9122e4, type: 3}
  m_AnimationClipSettings:
    serializedVersion: 2
    m_AdditiveReferencePoseClip: {fileID: 0}
    m_AdditiveReferencePoseTime: 0
    m_StartTime: 0
    m_StopTime: 0.55
    m_OrientationOffsetY: 0
    m_Level: 0
    m_CycleOffset: 0
    m_HasAdditiveReferencePose: 0
    m_LoopTime: 1
    m_LoopBlend: 0
    m_LoopBlendOrientation: 0
    m_LoopBlendPositionY: 0
    m_LoopBlendPositionXZ: 0
    m_KeepOriginalOrientation: 0
    m_KeepOriginalPositionY: 1
    m_KeepOriginalPositionXZ: 0
    m_HeightFromFeet: 0
    m_Mirror: 0
  m_EditorCurves: []
  m_EulerEditorCurves: []
  m_HasGenericRootTransform: 0
  m_HasMotionFloatCurves: 0
  m_GenerateMotionCurves: 0
  m_Events: []
