%YAML 1.1
%TAG !u! tag:unity3d.com,2011:
--- !u!74 &7400000
AnimationClip:
  m_ObjectHideFlags: 0
  m_PrefabParentObject: {fileID: 0}
  m_PrefabInternal: {fileID: 0}
  m_Name: HeroRun_01_new_fire
  serializedVersion: 6
  m_Legacy: 0
  m_Compressed: 0
  m_UseHighQualityCurve: 1
  m_RotationCurves: []
  m_CompressedRotationCurves: []
  m_EulerCurves: []
  m_PositionCurves:
  - curve:
      serializedVersion: 2
      m_Curve:
      - serializedVersion: 3
        time: 0
        value: {x: 0, y: -0.85, z: 0}
        inSlope: {x: 0, y: 0, z: 0}
        outSlope: {x: 0, y: 0, z: 0}
        tangentMode: 0
        weightedMode: 0
        inWeight: {x: 0, y: 0.33333334, z: 0.33333334}
        outWeight: {x: 0, y: 0.33333334, z: 0.33333334}
      m_PreInfinity: 2
      m_PostInfinity: 2
      m_RotationOrder: 4
    path: Hero_shadow
  m_ScaleCurves:
  - curve:
      serializedVersion: 2
      m_Curve:
      - serializedVersion: 3
        time: 0.4
        value: {x: 1.69, y: 1, z: 1}
        inSlope: {x: 0, y: 0, z: 0}
        outSlope: {x: 0, y: 0, z: 0}
        tangentMode: 0
        weightedMode: 0
        inWeight: {x: 0.33333334, y: 0.33333334, z: 0.33333334}
        outWeight: {x: 0.33333334, y: 0.33333334, z: 0.33333334}
      m_PreInfinity: 2
      m_PostInfinity: 2
      m_RotationOrder: 4
    path: Hero_shadow
  m_FloatCurves:
  - curve:
      serializedVersion: 2
      m_Curve:
      - serializedVersion: 3
        time: 0
        value: 1
        inSlope: 0
        outSlope: 0
        tangentMode: 136
        weightedMode: 0
        inWeight: 0.33333334
        outWeight: 0.33333334
      - serializedVersion: 3
        time: 0.4
        value: 0.67058825
        inSlope: 0
        outSlope: 0
        tangentMode: 136
        weightedMode: 0
        inWeight: 0.33333334
        outWeight: 0.33333334
      - serializedVersion: 3
        time: 0.8
        value: 1
        inSlope: 0
        outSlope: 0
        tangentMode: 136
        weightedMode: 0
        inWeight: 0.33333334
        outWeight: 0.33333334
      m_PreInfinity: 2
      m_PostInfinity: 2
      m_RotationOrder: 4
    attribute: m_Color.a
    path: Hero_shadow
    classID: 212
    script: {fileID: 0}
  m_PPtrCurves:
  - curve:
    - time: 0
      value: {fileID: 21300000, guid: d3528ca4c2d709848ae856e8a9fe9bd3, type: 3}
    - time: 0.05
      value: {fileID: 21300000, guid: 0f6a852afcf6158448f8178ac45e960e, type: 3}
    - time: 0.1
      value: {fileID: 21300000, guid: 8424e4ac0b484464ab7a622f0ce08547, type: 3}
    - time: 0.15
      value: {fileID: 21300000, guid: 3a75fe4123ecd32478a56a1851a843b1, type: 3}
    - time: 0.2
      value: {fileID: 21300000, guid: 4c04bb97105da8349b4065da774e4127, type: 3}
    - time: 0.25
      value: {fileID: 21300000, guid: f21a5817165ee284aaacb91a536447d7, type: 3}
    - time: 0.3
      value: {fileID: 21300000, guid: a2d521a97dbcaff4e92e31ad59a27087, type: 3}
    - time: 0.4
      value: {fileID: 21300000, guid: d3528ca4c2d709848ae856e8a9fe9bd3, type: 3}
    - time: 0.45
      value: {fileID: 21300000, guid: 0f6a852afcf6158448f8178ac45e960e, type: 3}
    - time: 0.5
      value: {fileID: 21300000, guid: 8424e4ac0b484464ab7a622f0ce08547, type: 3}
    - time: 0.55
      value: {fileID: 21300000, guid: 3a75fe4123ecd32478a56a1851a843b1, type: 3}
    - time: 0.6
      value: {fileID: 21300000, guid: 4c04bb97105da8349b4065da774e4127, type: 3}
    - time: 0.65
      value: {fileID: 21300000, guid: f21a5817165ee284aaacb91a536447d7, type: 3}
    - time: 0.7
      value: {fileID: 21300000, guid: a2d521a97dbcaff4e92e31ad59a27087, type: 3}
    attribute: m_Sprite
    path: Base
    classID: 212
    script: {fileID: 0}
  m_SampleRate: 60
  m_WrapMode: 0
  m_Bounds:
    m_Center: {x: 0, y: 0, z: 0}
    m_Extent: {x: 0, y: 0, z: 0}
  m_ClipBindingConstant:
    genericBindings:
    - serializedVersion: 2
      path: 4134888934
      attribute: 304273561
      script: {fileID: 0}
      typeID: 212
      customType: 0
      isPPtrCurve: 0
    - serializedVersion: 2
      path: 1619415391
      attribute: 0
      script: {fileID: 0}
      typeID: 212
      customType: 23
      isPPtrCurve: 1
    - serializedVersion: 2
      path: 4134888934
      attribute: 1
      script: {fileID: 0}
      typeID: 4
      customType: 0
      isPPtrCurve: 0
    - serializedVersion: 2
      path: 4134888934
      attribute: 3
      script: {fileID: 0}
      typeID: 4
      customType: 0
      isPPtrCurve: 0
    pptrCurveMapping:
    - {fileID: 21300000, guid: d3528ca4c2d709848ae856e8a9fe9bd3, type: 3}
    - {fileID: 21300000, guid: 0f6a852afcf6158448f8178ac45e960e, type: 3}
    - {fileID: 21300000, guid: 8424e4ac0b484464ab7a622f0ce08547, type: 3}
    - {fileID: 21300000, guid: 3a75fe4123ecd32478a56a1851a843b1, type: 3}
    - {fileID: 21300000, guid: 4c04bb97105da8349b4065da774e4127, type: 3}
    - {fileID: 21300000, guid: f21a5817165ee284aaacb91a536447d7, type: 3}
    - {fileID: 21300000, guid: a2d521a97dbcaff4e92e31ad59a27087, type: 3}
    - {fileID: 21300000, guid: d3528ca4c2d709848ae856e8a9fe9bd3, type: 3}
    - {fileID: 21300000, guid: 0f6a852afcf6158448f8178ac45e960e, type: 3}
    - {fileID: 21300000, guid: 8424e4ac0b484464ab7a622f0ce08547, type: 3}
    - {fileID: 21300000, guid: 3a75fe4123ecd32478a56a1851a843b1, type: 3}
    - {fileID: 21300000, guid: 4c04bb97105da8349b4065da774e4127, type: 3}
    - {fileID: 21300000, guid: f21a5817165ee284aaacb91a536447d7, type: 3}
    - {fileID: 21300000, guid: a2d521a97dbcaff4e92e31ad59a27087, type: 3}
  m_AnimationClipSettings:
    serializedVersion: 2
    m_AdditiveReferencePoseClip: {fileID: 0}
    m_AdditiveReferencePoseTime: 0
    m_StartTime: 0
    m_StopTime: 0.8
    m_OrientationOffsetY: 0
    m_Level: 0
    m_CycleOffset: 0
    m_HasAdditiveReferencePose: 0
    m_LoopTime: 1
    m_LoopBlend: 0
    m_LoopBlendOrientation: 0
    m_LoopBlendPositionY: 0
    m_LoopBlendPositionXZ: 0
    m_KeepOriginalOrientation: 0
    m_KeepOriginalPositionY: 1
    m_KeepOriginalPositionXZ: 0
    m_HeightFromFeet: 0
    m_Mirror: 0
  m_EditorCurves:
  - curve:
      serializedVersion: 2
      m_Curve:
      - serializedVersion: 3
        time: 0.4
        value: 1.69
        inSlope: 0
        outSlope: 0
        tangentMode: 136
        weightedMode: 0
        inWeight: 0.33333334
        outWeight: 0.33333334
      m_PreInfinity: 2
      m_PostInfinity: 2
      m_RotationOrder: 4
    attribute: m_LocalScale.x
    path: Hero_shadow
    classID: 4
    script: {fileID: 0}
  - curve:
      serializedVersion: 2
      m_Curve:
      - serializedVersion: 3
        time: 0.4
        value: 1
        inSlope: 0
        outSlope: 0
        tangentMode: 136
        weightedMode: 0
        inWeight: 0.33333334
        outWeight: 0.33333334
      m_PreInfinity: 2
      m_PostInfinity: 2
      m_RotationOrder: 4
    attribute: m_LocalScale.y
    path: Hero_shadow
    classID: 4
    script: {fileID: 0}
  - curve:
      serializedVersion: 2
      m_Curve:
      - serializedVersion: 3
        time: 0.4
        value: 1
        inSlope: 0
        outSlope: 0
        tangentMode: 136
        weightedMode: 0
        inWeight: 0.33333334
        outWeight: 0.33333334
      m_PreInfinity: 2
      m_PostInfinity: 2
      m_RotationOrder: 4
    attribute: m_LocalScale.z
    path: Hero_shadow
    classID: 4
    script: {fileID: 0}
  - curve:
      serializedVersion: 2
      m_Curve:
      - serializedVersion: 3
        time: 0
        value: 1
        inSlope: 0
        outSlope: 0
        tangentMode: 136
        weightedMode: 0
        inWeight: 0.33333334
        outWeight: 0.33333334
      - serializedVersion: 3
        time: 0.4
        value: 0.67058825
        inSlope: 0
        outSlope: 0
        tangentMode: 136
        weightedMode: 0
        inWeight: 0.33333334
        outWeight: 0.33333334
      - serializedVersion: 3
        time: 0.8
        value: 1
        inSlope: 0
        outSlope: 0
        tangentMode: 136
        weightedMode: 0
        inWeight: 0.33333334
        outWeight: 0.33333334
      m_PreInfinity: 2
      m_PostInfinity: 2
      m_RotationOrder: 4
    attribute: m_Color.a
    path: Hero_shadow
    classID: 212
    script: {fileID: 0}
  - curve:
      serializedVersion: 2
      m_Curve:
      - serializedVersion: 3
        time: 0
        value: 0
        inSlope: 0
        outSlope: 0
        tangentMode: 136
        weightedMode: 0
        inWeight: 0
        outWeight: 0
      m_PreInfinity: 2
      m_PostInfinity: 2
      m_RotationOrder: 4
    attribute: m_LocalPosition.x
    path: Hero_shadow
    classID: 4
    script: {fileID: 0}
  - curve:
      serializedVersion: 2
      m_Curve:
      - serializedVersion: 3
        time: 0
        value: -0.85
        inSlope: 0
        outSlope: 0
        tangentMode: 136
        weightedMode: 0
        inWeight: 0
        outWeight: 0
      m_PreInfinity: 2
      m_PostInfinity: 2
      m_RotationOrder: 4
    attribute: m_LocalPosition.y
    path: Hero_shadow
    classID: 4
    script: {fileID: 0}
  - curve:
      serializedVersion: 2
      m_Curve:
      - serializedVersion: 3
        time: 0
        value: 0
        inSlope: 0
        outSlope: 0
        tangentMode: 136
        weightedMode: 0
        inWeight: 0
        outWeight: 0
      m_PreInfinity: 2
      m_PostInfinity: 2
      m_RotationOrder: 4
    attribute: m_LocalPosition.z
    path: Hero_shadow
    classID: 4
    script: {fileID: 0}
  m_EulerEditorCurves: []
  m_HasGenericRootTransform: 0
  m_HasMotionFloatCurves: 0
  m_GenerateMotionCurves: 0
  m_Events:
  - time: 0
    functionName: AnimFrameJump
    data: 
    objectReferenceParameter: {fileID: 0}
    floatParameter: 0
    intParameter: 1
    messageOptions: 0
  - time: 0.016666668
    functionName: AnimFrameJump
    data: 
    objectReferenceParameter: {fileID: 0}
    floatParameter: 0
    intParameter: 2
    messageOptions: 0
  - time: 0.033333335
    functionName: AnimFrameJump
    data: 
    objectReferenceParameter: {fileID: 0}
    floatParameter: 0
    intParameter: 3
    messageOptions: 0
  - time: 0.05
    functionName: AnimFrameJump
    data: 
    objectReferenceParameter: {fileID: 0}
    floatParameter: 0
    intParameter: 4
    messageOptions: 0
  - time: 0.06666667
    functionName: AnimFrameJump
    data: 
    objectReferenceParameter: {fileID: 0}
    floatParameter: 0
    intParameter: 5
    messageOptions: 0
  - time: 0.083333336
    functionName: AnimFrameJump
    data: 
    objectReferenceParameter: {fileID: 0}
    floatParameter: 0
    intParameter: 6
    messageOptions: 0
  - time: 0.1
    functionName: AnimFrameJump
    data: 
    objectReferenceParameter: {fileID: 0}
    floatParameter: 0
    intParameter: 7
    messageOptions: 0
  - time: 0.11666667
    functionName: AnimFrameJump
    data: 
    objectReferenceParameter: {fileID: 0}
    floatParameter: 0
    intParameter: 8
    messageOptions: 0
  - time: 0.13333334
    functionName: AnimFrameJump
    data: 
    objectReferenceParameter: {fileID: 0}
    floatParameter: 0
    intParameter: 9
    messageOptions: 0
  - time: 0.15
    functionName: AnimFrameJump
    data: 
    objectReferenceParameter: {fileID: 0}
    floatParameter: 0
    intParameter: 10
    messageOptions: 0
  - time: 0.16666667
    functionName: AnimFrameJump
    data: 
    objectReferenceParameter: {fileID: 0}
    floatParameter: 0
    intParameter: 11
    messageOptions: 0
  - time: 0.18333334
    functionName: AnimFrameJump
    data: 
    objectReferenceParameter: {fileID: 0}
    floatParameter: 0
    intParameter: 12
    messageOptions: 0
  - time: 0.2
    functionName: AnimFrameJump
    data: 
    objectReferenceParameter: {fileID: 0}
    floatParameter: 0
    intParameter: 13
    messageOptions: 0
  - time: 0.21666667
    functionName: AnimFrameJump
    data: 
    objectReferenceParameter: {fileID: 0}
    floatParameter: 0
    intParameter: 14
    messageOptions: 0
  - time: 0.23333333
    functionName: AnimFrameJump
    data: 
    objectReferenceParameter: {fileID: 0}
    floatParameter: 0
    intParameter: 15
    messageOptions: 0
  - time: 0.25
    functionName: AnimFrameJump
    data: 
    objectReferenceParameter: {fileID: 0}
    floatParameter: 0
    intParameter: 16
    messageOptions: 0
